"Precision","Recall","F-measure"
78.5714285714286,59.4594594594595,67.6923076923077
69.3877551020408,89.4736842105263,78.1609195402299
76.4705882352941,47.2727272727273,58.4269662921348
56.0606060606061,63.7931034482759,59.6774193548387
47.2972972972973,61.4035087719298,53.4351145038168
58.974358974359,47.9166666666667,52.8735632183908
52.9411764705882,78.2608695652174,63.1578947368421
42.8571428571429,63.8297872340426,51.2820512820513
42.1686746987952,63.6363636363636,50.7246376811594
49.0566037735849,50.9803921568627,50
71.4285714285714,78.125,74.6268656716418
70.9677419354839,78.5714285714286,74.5762711864407
64.7058823529412,47.8260869565217,55
54.3859649122807,96.875,69.6629213483146
55,76.7441860465116,64.0776699029126
67.6470588235294,79.3103448275862,73.015873015873
56.6666666666667,38.2022471910112,45.6375838926174
71.1111111111111,94.1176470588235,81.0126582278481
77.7777777777778,77.7777777777778,77.7777777777778
68.5714285714286,70.5882352941177,69.5652173913043
84.6153846153846,55,66.6666666666667
53.7037037037037,56.8627450980392,55.2380952380952
39.3258426966292,77.7777777777778,52.2388059701493
42.1052631578947,50,45.7142857142857
38.2352941176471,56.5217391304348,45.6140350877193
67.2727272727273,52.112676056338,58.7301587301587
51.9230769230769,67.5,58.695652173913
60,82.5,69.4736842105263
42.3076923076923,67.3469387755102,51.9685039370079
63.3333333333333,58.4615384615385,60.8
85.7142857142857,54.5454545454545,66.6666666666667
68.6274509803922,60.3448275862069,64.2201834862385
36.9047619047619,50,42.4657534246575
45.8333333333333,68.75,55
57.6923076923077,60,58.8235294117647
72,63.1578947368421,67.2897196261682
66.6666666666667,74.2857142857143,70.2702702702703
75.6756756756757,53.8461538461538,62.9213483146067
60.5263157894737,48.936170212766,54.1176470588235
64.4444444444444,63.0434782608696,63.7362637362637
84.8484848484848,56,67.4698795180723
35.7142857142857,65.2173913043478,46.1538461538462
69.5652173913043,42.1052631578947,52.4590163934426
37.8378378378378,87.5,52.8301886792453
52.3809523809524,67.3469387755102,58.9285714285714
65.9090909090909,93.5483870967742,77.3333333333333
58.8235294117647,55.5555555555556,57.1428571428571
53.2258064516129,68.75,60
39.7058823529412,67.5,50
48.2758620689655,73.6842105263158,58.3333333333333
69.2307692307692,60,64.2857142857143
66.0714285714286,64.9122807017544,65.4867256637168
75.6756756756757,57.1428571428571,65.1162790697674
50,83.7209302325581,62.6086956521739
60.3174603174603,70.3703703703704,64.957264957265
85.7142857142857,62.0689655172414,72
70.5882352941177,77.4193548387097,73.8461538461539
78.5714285714286,91.6666666666667,84.6153846153846
65.8536585365854,79.4117647058823,72
46.9879518072289,62.9032258064516,53.7931034482759
73.3333333333333,73.3333333333333,73.3333333333333
60.377358490566,55.1724137931034,57.6576576576577
49.3827160493827,68.9655172413793,57.5539568345324
75.6756756756757,70,72.7272727272727
67.6470588235294,82.1428571428571,74.1935483870968
43.2835820895522,74.3589743589744,54.7169811320755
59.1836734693878,50.8771929824561,54.7169811320755
36.1111111111111,75,48.75
30.8510638297872,64.4444444444444,41.726618705036
70.7317073170732,65.9090909090909,68.2352941176471
45.1612903225806,41.7910447761194,43.4108527131783
49.3506493506493,59.375,53.9007092198582
56.0975609756098,57.5,56.7901234567901
54.4117647058823,74,62.7118644067797
54.9019607843137,51.8518518518518,53.3333333333333
63.0434782608696,58,60.4166666666667
84.8484848484848,60.8695652173913,70.8860759493671
36,75,48.6486486486486
45.5882352941176,77.5,57.4074074074074
52.8571428571429,84.0909090909091,64.9122807017544
55.9322033898305,71.7391304347826,62.8571428571429
69.2307692307692,61.3636363636364,65.0602409638554
72.7272727272727,66.6666666666667,69.5652173913043
43.3734939759036,61.0169491525424,50.7042253521127
39.0804597701149,53.125,45.0331125827815
52.7272727272727,93.5483870967742,67.4418604651163
45.6140350877193,66.6666666666667,54.1666666666667
80.6451612903226,43.859649122807,56.8181818181818
60,43.75,50.6024096385542
58.9285714285714,55.9322033898305,57.3913043478261
68.75,84.6153846153846,75.8620689655172
80,63.6363636363636,70.8860759493671
62.5,45.4545454545455,52.6315789473684
45,75,56.25
79.3103448275862,57.5,66.6666666666667
53.3333333333333,75,62.3376623376623
55.3846153846154,75,63.716814159292
75.609756097561,62,68.1318681318681
43.3962264150943,63.8888888888889,51.685393258427
82.3529411764706,75.6756756756757,78.8732394366197
65.9574468085106,48.4375,55.8558558558559
37.6470588235294,64,47.4074074074074
40.8602150537634,40,40.4255319148936
75,47.8260869565217,58.4070796460177
45.7831325301205,73.0769230769231,56.2962962962963
54.5454545454545,82.7586206896552,65.7534246575343
